ssn,birth_year,death_year
10000001,1901,1932
10000002,1908,1968
10000003,1912,1984
10000004,1902,1988
10000005,1934,1996
10000006,2000,2000
10000007,1999,2000
10000008,1977,1978
10000009,1940,1954
10000010,1931,1959
10000011,1911,1978
10000012,1972,1999
10000013,1926,1987
10000014,1987,1990
10000015,1997,2000
10000016,1937,1970
10000017,1901,1992
10000018,1942,1991
10000019,1954,1984
10000020,1951,1994
10000021,1959,1989
10000022,1955,1998
10000023,1961,1962
10000024,1972,1999
10000025,1943,1997
10000026,1900,1947
10000027,1905,1934
10000028,1915,1985
10000029,1925,1961
10000030,1905,1966